^C:\USERS\JOEY\SOURCE\REPOS\PROJECT2\PROJECT2\DEBUG\SOURCE.OBJ
C:\USERS\JOEY\SOURCE\REPOS\PROJECT2\DEBUG\PROJECT2.EXE
C:\USERS\JOEY\SOURCE\REPOS\PROJECT2\DEBUG\PROJECT2.ILK
C:\USERS\JOEY\SOURCE\REPOS\PROJECT2\DEBUG\PROJECT2.PDB
